<svg width="96" height="96" viewBox="0 0 96 96" fill="none" xmlns="http://www.w3.org/2000/svg">
<rect width="96" height="96" rx="10" fill="#186AB4"/>
<path d="M47.5 74C61.5833 74 73 62.5833 73 48.5C73 34.4167 61.5833 23 47.5 23C33.4167 23 22 34.4167 22 48.5C22 62.5833 33.4167 74 47.5 74Z" fill="white"/>
<path d="M56.7395 45.0532C56.7395 39.9505 52.68 35.8142 47.5003 35.8142C42.4202 35.8142 38.2613 39.9505 38.2613 45.0532C38.2613 45.2189 38.2658 45.3839 38.2745 45.5475L38.2612 45.5508C38.2612 48.1094 40.3934 51.8991 41.2462 53.3206C42.0991 54.7418 42.8098 58.461 42.8098 58.461H45.3887H47.216H47.5003H52.2617C52.2617 58.461 52.9015 54.7418 53.7543 53.3207C54.6071 51.8992 56.7393 48.121 56.7393 45.5625L56.7259 45.5534C56.7347 45.3896 56.7395 45.219 56.7395 45.0532Z" fill="#186AB4"/>
<path d="M50.3891 58.8762C50.1732 58.8762 49.9905 58.701 49.9905 58.4853V53.7237C49.9905 53.4718 50.0652 53.1783 50.1718 52.9499L51.0656 51.0899H49.997C49.9409 51.0899 49.8294 51.085 49.8012 51.1335L49.0446 52.4018C48.9224 52.6129 48.7295 52.7114 48.5188 52.7012C48.3071 52.6916 48.1267 52.5507 48.024 52.3293L47.4977 51.1907L46.9768 52.3214C46.8746 52.5432 46.6946 52.6751 46.4826 52.6849C46.2697 52.6943 46.0792 52.5792 45.9565 52.3681L45.2001 51.1339C45.1721 51.0853 45.0605 51.0899 45.0044 51.0899H43.9323L44.8228 52.951C44.9281 53.1796 45.0099 53.4723 45.0099 53.7238V58.4854C45.0099 58.7011 44.8773 58.8763 44.6613 58.8763C44.4455 58.8763 44.3127 58.7011 44.3127 58.4854V53.7238C44.3127 53.585 44.2129 53.3349 44.1547 53.2088L43.1382 51.0472C43.0424 50.8392 43.0407 50.6312 43.1524 50.4565C43.2645 50.2822 43.4489 50.1934 43.6779 50.1934H45.0043C45.3407 50.1934 45.7074 50.393 45.8761 50.6839L46.4327 51.6364L46.9822 50.439C47.1665 50.0385 47.2355 49.8872 47.4962 49.8872C47.7562 49.8872 47.8255 50.0359 48.0109 50.4354L48.5669 51.6335L49.1252 50.6837C49.2938 50.393 49.6605 50.1933 49.9969 50.1933H51.3235C51.553 50.1933 51.7485 50.2821 51.86 50.4571C51.9717 50.6324 51.9799 50.8458 51.8829 51.0538L50.8876 53.2141C50.829 53.3392 50.7872 53.5855 50.7872 53.7236V58.4852C50.7874 58.701 50.6049 58.8762 50.3891 58.8762Z" fill="white"/>
<path d="M51.3238 50.1935H49.9972C49.6608 50.1935 49.2942 50.3931 49.1255 50.6838L48.5672 51.6392L48.0112 50.4376C47.8269 50.0405 47.7993 49.8877 47.5005 49.8862V51.1916L48.0244 52.3208C48.1271 52.5422 48.3071 52.6745 48.5191 52.6842C48.7296 52.6945 48.9227 52.5785 49.045 52.3676L49.8016 51.1335C49.8298 51.0851 49.9411 51.0899 49.9973 51.0899H51.0659L50.1721 52.95C50.0655 53.1784 49.9908 53.4718 49.9908 53.7238V58.4611H50.7877V53.7238C50.7877 53.5856 50.8295 53.3366 50.8881 53.2115L51.888 51.0483C51.9848 50.8403 51.9742 50.6325 51.8628 50.4572C51.7511 50.2823 51.5533 50.1935 51.3238 50.1935Z" fill="white"/>
<path d="M43.2362 58.0625C42.4545 58.0625 41.8228 58.5563 41.8228 59.338V64.313C41.8228 67.44 44.4126 69.9985 47.5005 69.9985V58.0625H43.2362Z" fill="#186AB4"/>
<path d="M51.7646 58.0625H47.5005V69.9985C50.688 69.9985 53.1782 67.4399 53.1782 64.313V59.338C53.1782 58.5563 52.5464 58.0625 51.7646 58.0625Z" fill="#186AB4"/>
<path d="M53.9751 60.9728V59.9065C53.9751 59.7111 53.7367 59.5566 53.5414 59.5566H47.5005V61.3496H53.5414C53.7367 61.3496 53.9751 61.1681 53.9751 60.9728Z" fill="white"/>
<path d="M41.4596 59.5566C41.2643 59.5566 41.1255 59.7111 41.1255 59.9065V60.9728C41.1255 61.1681 41.2643 61.3496 41.4596 61.3496H47.5005V59.5566H41.4596Z" fill="white"/>
<path d="M53.5414 64.6367C53.7368 64.6367 53.9751 64.4373 53.9751 64.2418V63.1756C53.9751 62.9803 53.7367 62.8438 53.5414 62.8438H47.5005V64.6367H53.5414Z" fill="white"/>
<path d="M41.1255 63.1756V64.2418C41.1255 64.4373 41.2643 64.6367 41.4596 64.6367H47.5005V62.8438H41.4596C41.2643 62.8438 41.1255 62.9803 41.1255 63.1756Z" fill="white"/>
<path d="M47.5503 32.2607C46.9615 32.2607 46.5044 31.7835 46.5044 31.1946V28.0676C46.5044 27.4789 46.9615 27.0015 47.5503 27.0015C48.1389 27.0015 48.5962 27.4789 48.5962 28.0676V31.1946C48.5962 31.7835 48.1389 32.2607 47.5503 32.2607Z" fill="#F4C342"/>
<path d="M47.5503 32.2607C46.9615 32.2607 46.5044 31.7835 46.5044 31.1946V28.0676C46.5044 27.4789 46.9615 27.0015 47.5503 27.0015C48.1389 27.0015 48.5962 27.4789 48.5962 28.0676V31.1946C48.5962 31.7835 48.1389 32.2607 47.5503 32.2607Z" fill="#186AB4"/>
<path d="M64.2017 45.9102H61.0744C60.4858 45.9102 60.0083 45.4529 60.0083 44.8643C60.0083 44.2754 60.4858 43.8184 61.0744 43.8184H64.2017C64.7903 43.8184 65.2676 44.2754 65.2676 44.8643C65.2676 45.4529 64.7903 45.9102 64.2017 45.9102Z" fill="#F89B36"/>
<path d="M64.2017 45.9102H61.0744C60.4858 45.9102 60.0083 45.4529 60.0083 44.8643C60.0083 44.2754 60.4858 43.8184 61.0744 43.8184H64.2017C64.7903 43.8184 65.2676 44.2754 65.2676 44.8643C65.2676 45.4529 64.7903 45.9102 64.2017 45.9102Z" fill="#186AB4"/>
<path d="M33.926 45.9102H30.7989C30.2103 45.9102 29.7329 45.4529 29.7329 44.8643C29.7329 44.2754 30.2103 43.8184 30.7989 43.8184H33.926C34.5147 43.8184 34.9922 44.2754 34.9922 44.8643C34.9922 45.4529 34.5147 45.9102 33.926 45.9102Z" fill="#186AB4"/>
<path d="M37.9019 36.2367C37.6288 36.2367 37.3561 36.1326 37.148 35.9244L34.9368 33.7134C34.5204 33.297 34.5204 32.622 34.9368 32.2056C35.3532 31.7892 36.0282 31.7892 36.4444 32.2056L38.6556 34.4168C39.0719 34.833 39.0719 35.508 38.6556 35.9244C38.4474 36.1326 38.1746 36.2367 37.9019 36.2367Z" fill="#186AB4"/>
<path d="M57.0986 36.2366C56.826 36.2366 56.5532 36.1327 56.3451 35.9245C55.9286 35.5082 55.9286 34.8333 56.3451 34.4169L58.556 32.2055C58.9723 31.7893 59.6472 31.7891 60.0637 32.2055C60.4798 32.6219 60.4798 33.2969 60.0637 33.7133L57.8526 35.9245C57.6446 36.1327 57.3715 36.2366 57.0986 36.2366Z" fill="#F89B36"/>
<path d="M57.0986 36.2366C56.826 36.2366 56.5532 36.1327 56.3451 35.9245C55.9286 35.5082 55.9286 34.8333 56.3451 34.4169L58.556 32.2055C58.9723 31.7893 59.6472 31.7891 60.0637 32.2055C60.4798 32.6219 60.4798 33.2969 60.0637 33.7133L57.8526 35.9245C57.6446 36.1327 57.3715 36.2366 57.0986 36.2366Z" fill="#186AB4"/>
</svg>
