<svg width="113" height="23" viewBox="0 0 113 23" fill="none" xmlns="http://www.w3.org/2000/svg">
<path d="M36.1461 7.13328H32.9232C33.0472 4.83358 33.5182 2.76132 35.5759 1.4472C37.6336 0.158358 39.8896 -0.144899 42.2448 0.0572722C43.5092 0.158358 44.7736 0.436347 45.9388 0.992319C47.9965 1.95263 49.0129 3.59528 49.0129 5.89498C49.0129 9.96368 49.0129 14.0324 49.0129 18.1011C49.0129 19.5921 49.3104 19.8701 50.7731 19.7185C50.9219 19.6932 51.0954 19.6679 51.2442 19.6426C51.269 19.7185 51.269 19.7943 51.269 19.8448V22.3214C50.1038 22.7258 48.9138 22.8521 47.7486 22.5236C46.8809 22.2709 46.3355 21.6391 46.038 20.8051C45.8892 20.3755 45.79 19.9206 45.6661 19.4405C45.5421 19.5921 45.443 19.7185 45.319 19.8448C42.7655 22.473 39.7409 23.585 36.1709 22.65C33.6422 21.9929 31.9068 19.6426 31.8324 16.9639C31.8076 16.1046 31.882 15.2454 32.0803 14.4115C32.5513 12.4908 33.8901 11.3283 35.5759 10.5449C36.7659 9.98895 38.0551 9.83732 39.3442 9.66042C40.8565 9.45825 42.344 9.28135 43.8563 9.05391C44.8727 8.90228 45.3934 8.34631 45.5421 7.31018C45.8644 5.21265 44.9471 3.82272 42.9638 3.31729C41.7738 3.01404 40.559 2.96349 39.3442 3.19094C37.5592 3.51947 36.5676 4.5556 36.2205 6.34987C36.2453 6.60258 36.1957 6.85529 36.1461 7.13328ZM45.6413 11.1767C44.1538 11.9854 42.7159 12.1876 41.2532 12.415C40.0384 12.6172 38.7988 12.7941 37.6088 13.1732C36.047 13.7039 35.328 15.018 35.4767 16.787C35.6007 18.2527 36.5676 19.4405 38.1294 19.6932C40.5342 20.0975 42.6663 19.4152 44.3521 17.5957C44.848 17.065 45.2446 16.3068 45.3438 15.5992C45.5669 14.184 45.5421 12.7435 45.6413 11.1767ZM91.5801 15.4223C91.5057 15.7761 91.4561 16.0794 91.3817 16.3574C89.9934 20.6788 87.1672 22.5236 83.7459 22.9279C77.8208 23.585 74.4243 19.6426 73.5566 15.4476C72.8624 12.1118 72.9616 8.8012 74.3995 5.66754C75.7631 2.71078 77.9447 0.764873 81.1924 0.183629C85.0847 -0.523971 90.5884 1.4472 91.5057 7.63871C91.7536 9.23081 91.8032 10.8735 91.952 12.5414H76.8787C77.0026 14.8158 77.3497 16.9386 78.986 18.5812C79.6553 19.2636 80.523 19.5921 81.4651 19.769C84.5145 20.325 87.0432 18.834 88.0349 15.8267C88.134 15.4981 88.2828 15.397 88.6051 15.4223C89.572 15.4223 90.5388 15.4223 91.5801 15.4223ZM77.0026 9.60988H88.2828C88.1588 8.2705 87.9357 7.03219 87.3159 5.8697C86.7209 4.75776 85.8532 3.94908 84.6632 3.54474C80.771 2.18008 76.7547 5.33901 77.0026 9.60988ZM99.6869 22.1951H96.2657V0.512163H99.5134V3.54474C99.7613 3.26675 99.91 3.08985 100.059 2.91295C102.389 0.208906 105.315 -0.498698 108.637 0.33526C110.942 0.916503 112.231 2.58442 112.678 4.90939C112.851 5.86971 112.975 6.85529 112.975 7.81561C113 12.4656 113 17.1155 113 21.7655C113 21.8918 112.975 22.0182 112.975 22.1698H109.48V21.5885C109.48 17.2419 109.504 12.8952 109.455 8.54848C109.455 7.58816 109.306 6.60258 109.033 5.66754C108.587 4.15125 107.397 3.34256 105.835 3.26675C102.984 3.16566 100.728 4.70722 100.034 7.28491C99.7861 8.21995 99.7117 9.20554 99.7117 10.1911C99.6869 14.0071 99.6869 17.7978 99.6869 21.5633V22.1951ZM54.591 0.512163H57.8883V9.71097C58.0867 9.5088 58.2106 9.40771 58.3346 9.28135C61.0369 6.47622 63.7391 3.64582 66.4414 0.840689C66.6645 0.587974 66.8877 0.48689 67.2348 0.48689C68.4991 0.512161 69.7883 0.48689 71.1766 0.48689C70.9783 0.689061 70.8791 0.815416 70.7551 0.941773C68.3752 3.36783 66.02 5.81917 63.6152 8.21995C63.3425 8.49794 63.3425 8.67484 63.516 8.9781C66.1191 13.1984 68.6975 17.4188 71.2758 21.6391C71.3749 21.7907 71.4493 21.9423 71.5733 22.1698C71.3997 22.1951 71.2758 22.1951 71.127 22.1951C69.937 22.1951 68.7718 22.1951 67.5818 22.1951C67.2595 22.1951 67.1108 22.0687 66.9372 21.816C64.9539 18.4296 62.9706 15.0432 60.9873 11.6316C60.8881 11.48 60.8137 11.3283 60.6898 11.1514C59.7725 12.0865 58.88 12.971 57.9875 13.906C57.8635 14.0324 57.8387 14.2598 57.8387 14.4367C57.8387 16.8122 57.8387 19.1878 57.8387 21.5633V22.1698C57.1942 22.1698 56.5496 22.1698 55.9298 22.1698C55.4835 22.1698 54.8638 22.2961 54.6158 22.0434C54.3927 21.8413 54.5167 21.1842 54.5167 20.7293V1.0934C54.591 0.967046 54.591 0.764877 54.591 0.512163ZM16.536 0.48689C13.8585 3.19093 11.2554 5.84444 8.62747 8.49794C11.4537 13.0973 14.2056 17.5957 17.007 22.1951C16.7839 22.1951 16.6351 22.2203 16.4864 22.2203C15.346 22.2203 14.1808 22.2203 13.0404 22.2203C12.7181 22.2203 12.5197 22.094 12.3462 21.816C10.3629 18.4296 8.37955 15.0432 6.39623 11.6316C6.32185 11.48 6.22269 11.3536 6.09873 11.1514C5.6029 11.6821 5.15665 12.2634 4.61123 12.6677C3.49561 13.527 3.17332 14.5884 3.2477 16.0036C3.37166 17.8484 3.27249 19.7185 3.27249 21.5633V22.1698H0V0.512163H3.27249V9.55934C3.34687 9.60988 3.42124 9.66042 3.47082 9.71097C3.56999 9.55934 3.61957 9.38244 3.71874 9.25608C6.39623 6.45095 9.09851 3.67109 11.776 0.840689C12.0239 0.587974 12.247 0.461618 12.6189 0.48689C13.7345 0.512161 14.8502 0.48689 15.9658 0.48689C16.1393 0.48689 16.2881 0.48689 16.536 0.48689ZM23.081 4.1007C24.742 1.6241 26.5022 -0.448151 29.7747 0.158364V3.87326C28.907 3.9238 28.0393 3.89854 27.2212 4.07544C25.213 4.50505 23.6512 6.37513 23.3289 8.64956C23.2793 9.10445 23.2297 9.55934 23.2297 10.0142C23.2297 13.8808 23.2297 17.7473 23.2297 21.6138V22.2203H19.8581V0.562701H23.081C23.081 1.69992 23.081 2.83713 23.081 4.1007Z" fill="white"/>
</svg>
