<svg width="168" height="63" viewBox="0 0 168 63" fill="none" xmlns="http://www.w3.org/2000/svg">
<path d="M71.4136 10.1077H76.6551V38.3317H71.4136V10.1077ZM96.0223 16.5589C98.7373 16.5589 100.915 17.3519 102.554 18.9378C104.194 20.5237 105.014 22.8757 105.014 25.9938V38.3317H99.9736V26.6389C99.9736 24.7573 99.5301 23.3461 98.6431 22.4053C97.756 21.4376 96.493 20.9538 94.853 20.9538C92.9983 20.9538 91.5337 21.5183 90.4582 22.6472C89.3831 23.7493 88.8454 25.3487 88.8454 27.4453V38.3317H83.8054V16.8008H88.6034V19.5829C89.437 18.5883 90.4854 17.8357 91.7484 17.325C93.0119 16.8142 94.4367 16.5589 96.0223 16.5589ZM118.06 38.6139C116.313 38.6139 114.606 38.3854 112.94 37.9285C111.273 37.4715 109.942 36.8935 108.948 36.1947L110.883 32.3643C111.851 33.0094 113.007 33.5336 114.351 33.9368C115.722 34.3131 117.065 34.5013 118.383 34.5013C121.393 34.5013 122.899 33.7083 122.899 32.1224C122.899 31.3697 122.508 30.8456 121.729 30.5499C120.976 30.2542 119.754 29.972 118.06 29.7032C116.286 29.4344 114.835 29.1253 113.706 28.7758C112.603 28.4264 111.636 27.8216 110.803 26.9614C109.996 26.0744 109.593 24.8514 109.593 23.2923C109.593 21.2494 110.44 19.6232 112.133 18.4136C113.853 17.1771 116.165 16.5589 119.068 16.5589C120.546 16.5589 122.025 16.7336 123.503 17.0831C124.982 17.4056 126.191 17.8492 127.132 18.4136L125.197 22.244C123.369 21.1688 121.312 20.6312 119.028 20.6312C117.549 20.6312 116.42 20.8597 115.641 21.3167C114.888 21.7467 114.512 22.3247 114.512 23.0504C114.512 23.8568 114.915 24.4347 115.722 24.7842C116.555 25.1067 117.831 25.4158 119.552 25.7115C121.272 25.9803 122.683 26.2894 123.786 26.6389C124.887 26.9883 125.828 27.5797 126.608 28.413C127.414 29.2462 127.818 30.429 127.818 31.9611C127.818 33.9771 126.944 35.5899 125.197 36.7995C123.449 38.0091 121.071 38.6139 118.06 38.6139ZM145.101 37.1624C144.509 37.6462 143.783 38.0091 142.923 38.251C142.09 38.4929 141.203 38.6139 140.262 38.6139C137.897 38.6139 136.069 37.9956 134.779 36.7592C133.489 35.5227 132.843 33.7217 132.843 31.3563V20.9941H129.295V16.9621H132.843V12.0431H137.883V16.9621H143.649V20.9941H137.883V31.2354C137.883 32.2837 138.138 33.0901 138.649 33.6546C139.16 34.1921 139.899 34.4609 140.867 34.4609C141.996 34.4609 142.936 34.1653 143.689 33.5739L145.101 37.1624ZM157.472 16.5589C160.643 16.5589 163.063 17.325 164.729 18.8572C166.423 20.3624 167.27 22.6472 167.27 25.7115V38.3317H162.512V35.7109C161.893 36.6516 161.006 37.3774 159.851 37.8881C158.722 38.372 157.351 38.6139 155.738 38.6139C154.125 38.6139 152.714 38.3451 151.504 37.8075C150.295 37.243 149.354 36.4769 148.682 35.5093C148.037 34.5147 147.714 33.3992 147.714 32.1627C147.714 30.2274 148.427 28.6817 149.851 27.5259C151.303 26.3432 153.574 25.7519 156.665 25.7519H162.23V25.4293C162.23 23.924 161.772 22.7682 160.859 21.9618C159.972 21.1554 158.641 20.7522 156.867 20.7522C155.657 20.7522 154.461 20.9403 153.279 21.3167C152.123 21.693 151.142 22.2171 150.335 22.8891L148.36 19.22C149.488 18.3599 150.846 17.7013 152.432 17.2444C154.018 16.7874 155.698 16.5589 157.472 16.5589ZM156.786 34.9448C158.05 34.9448 159.165 34.6625 160.133 34.0981C161.127 33.5067 161.826 32.6734 162.23 31.5982V29.0984H157.028C154.125 29.0984 152.674 30.0526 152.674 31.9611C152.674 32.875 153.037 33.6008 153.762 34.1384C154.488 34.676 155.496 34.9448 156.786 34.9448Z" fill="white"/>
<path d="M74.8186 54.5578C73.928 54.5578 73.1216 54.3648 72.3994 53.9782C71.6852 53.5836 71.1227 53.0418 70.711 52.3528C70.3078 51.6639 70.1062 50.8872 70.1062 50.0218C70.1062 49.1566 70.3118 48.3797 70.7236 47.6909C71.1353 47.002 71.6978 46.4645 72.412 46.0781C73.1342 45.6833 73.9406 45.4859 74.8312 45.4859C75.5534 45.4859 76.2131 45.6119 76.8093 45.8639C77.4056 46.1159 77.9096 46.4813 78.3213 46.9601L77.2629 47.9555C76.6244 47.2666 75.8392 46.9223 74.9068 46.9223C74.302 46.9223 73.7602 47.0567 73.2814 47.3255C72.8026 47.5859 72.4286 47.9513 72.16 48.4216C71.8913 48.892 71.7568 49.4255 71.7568 50.0218C71.7568 50.6181 71.8913 51.1518 72.16 51.622C72.4286 52.0923 72.8026 52.4622 73.2814 52.7308C73.7602 52.9914 74.302 53.1214 74.9068 53.1214C75.8392 53.1214 76.6244 52.7727 77.2629 52.0756L78.3213 53.0836C77.9096 53.5624 77.4015 53.9278 76.7967 54.1798C76.2005 54.4318 75.5408 54.5578 74.8186 54.5578ZM89.1437 54.4318L87.3419 51.8488C87.2663 51.8574 87.1529 51.8614 87.0017 51.8614H85.0109V54.4318H83.3729V45.6119H87.0017C87.7663 45.6119 88.43 45.7379 88.9925 45.9899C89.564 46.2419 90.0005 46.6031 90.3029 47.0735C90.6053 47.5438 90.7565 48.1025 90.7565 48.7492C90.7565 49.4129 90.5927 49.984 90.2651 50.4628C89.9461 50.9416 89.4839 51.2985 88.8791 51.5338L90.9077 54.4318H89.1437ZM89.1059 48.7492C89.1059 48.1864 88.9214 47.7539 88.5515 47.4515C88.1821 47.1491 87.6403 46.9979 86.9261 46.9979H85.0109V50.5132H86.9261C87.6403 50.5132 88.1821 50.362 88.5515 50.0596C88.9214 49.7488 89.1059 49.3121 89.1059 48.7492ZM99.8769 51.3196V54.4318H98.2389V51.3448L94.7739 45.6119H96.5253L99.1083 49.9084L101.716 45.6119H103.329L99.8769 51.3196ZM111.513 45.6119C112.277 45.6119 112.94 45.7379 113.503 45.9899C114.074 46.2419 114.511 46.6031 114.814 47.0735C115.116 47.5438 115.267 48.1025 115.267 48.7492C115.267 49.3877 115.116 49.9462 114.814 50.425C114.511 50.8953 114.074 51.2566 113.503 51.5086C112.94 51.7606 112.277 51.8866 111.513 51.8866H109.522V54.4318H107.884V45.6119H111.513ZM111.437 50.5006C112.151 50.5006 112.693 50.3494 113.062 50.047C113.432 49.7446 113.617 49.3121 113.617 48.7492C113.617 48.1864 113.432 47.7539 113.062 47.4515C112.693 47.1491 112.151 46.9979 111.437 46.9979H109.522V50.5006H111.437ZM122.298 46.9979H119.375V45.6119H126.859V46.9979H123.936V54.4318H122.298V46.9979ZM135.69 54.5578C134.792 54.5578 133.981 54.3648 133.259 53.9782C132.536 53.5836 131.969 53.0418 131.558 52.3528C131.146 51.6558 130.94 50.8786 130.94 50.0218C130.94 49.165 131.146 48.3923 131.558 47.7035C131.969 47.0063 132.536 46.4645 133.259 46.0781C133.981 45.6833 134.792 45.4859 135.69 45.4859C136.589 45.4859 137.4 45.6833 138.122 46.0781C138.845 46.4645 139.412 47.002 139.823 47.6909C140.235 48.3797 140.441 49.1566 140.441 50.0218C140.441 50.8872 140.235 51.6639 139.823 52.3528C139.412 53.0418 138.845 53.5836 138.122 53.9782C137.4 54.3648 136.589 54.5578 135.69 54.5578ZM135.69 53.1214C136.279 53.1214 136.808 52.9914 137.278 52.7308C137.748 52.4622 138.118 52.0923 138.387 51.622C138.656 51.1432 138.79 50.61 138.79 50.0218C138.79 49.4338 138.656 48.9046 138.387 48.4342C138.118 47.9555 137.748 47.5859 137.278 47.3255C136.808 47.0567 136.279 46.9223 135.69 46.9223C135.102 46.9223 134.573 47.0567 134.103 47.3255C133.633 47.5859 133.263 47.9555 132.994 48.4342C132.725 48.9046 132.591 49.4338 132.591 50.0218C132.591 50.61 132.725 51.1432 132.994 51.622C133.263 52.0923 133.633 52.4622 134.103 52.7308C134.573 52.9914 135.102 53.1214 135.69 53.1214Z" fill="white"/>
<path d="M6.49168 14.1715C6.49168 14.1715 4.389 12.6198 6.89084 11.2892L24.7241 0.933334C24.7241 0.933334 27.5352 -0.940698 30.6423 0.622246L53.6048 13.7817C53.6048 13.7817 56.3294 15.1835 56.0185 18.2194L56.0971 28.8882C56.0971 28.8882 56.2528 31.1465 54.0735 32.1584L41.4573 39.7127C41.4573 39.7127 39.3546 40.4135 39.4334 38.4664L39.3697 33.8601C39.3548 32.998 39.5029 32.1409 39.8063 31.3339C40.2242 30.2319 40.9663 28.862 42.1601 28.4216L44.4183 27.0985C44.4183 27.0985 46.5978 25.931 46.6765 23.8284L46.6203 22.1418C46.6015 21.5796 46.4441 20.963 46.0037 20.5994C45.379 20.0568 44.6859 19.5981 43.9423 19.2351L29.6135 10.9894C29.6135 10.9894 28.5228 9.66634 26.5757 10.8339L16.6152 16.5852C16.6152 16.5852 14.8236 18.0639 11.2423 16.7408L6.49168 14.1715Z" fill="white"/>
<path d="M14.7618 23.2418L2.3313 30.47C2.3313 30.47 0.0824572 31.7143 0 34.278V45.7901C0 45.7901 0.155544 47.7335 1.55357 48.5112L24.8703 62.2685C25.7179 62.7065 26.6509 62.954 27.6041 62.9943C28.5573 63.0341 29.5078 62.8658 30.3893 62.5009L49.1989 51.62C49.1989 51.62 50.3084 51.116 50.136 49.9449C50.0909 49.6804 49.9875 49.4293 49.8332 49.2098C49.6788 48.9903 49.4775 48.808 49.2439 48.6762L46.1405 46.8247C45.0251 46.1534 43.7633 45.7631 42.4636 45.6871C41.3393 45.6252 40.5465 45.7321 39.3209 46.4817L29.4504 52.0777C29.4504 52.0777 28.4403 53.0877 26.1858 52.0777L10.7251 42.9791C10.7251 42.9791 9.01598 42.4356 9.24832 39.7933L9.48636 38.5433C9.54649 38.2199 9.6673 37.9109 9.84239 37.6325C10.3722 36.8008 11.1402 36.1477 12.0463 35.7585C12.0463 35.7585 16.2441 33.9707 16.3209 30.4737L16.3978 24.4899C16.3978 24.4899 16.7107 22.7752 14.7618 23.2418Z" fill="white"/>
<path d="M28.2117 39.827C32.8133 39.827 36.5436 36.0966 36.5436 31.495C36.5436 26.8934 32.8133 23.1631 28.2117 23.1631C23.6101 23.1631 19.8797 26.8934 19.8797 31.495C19.8797 36.0966 23.6101 39.827 28.2117 39.827Z" fill="white"/>
<path d="M22.2991 48.1027L24.518 49.5138L29.9976 46.1406C29.9976 46.1406 28.8938 44.8662 25.9816 45.8313C25.8372 45.8806 25.6994 45.9473 25.5711 46.03L22.2991 48.1027Z" fill="white"/>
<path d="M25.9216 50.0892L27.4208 51.1216C27.4208 51.1216 28.0055 51.7344 28.9388 50.9754C29.872 50.2166 36.9202 46.3036 36.9202 46.3036C36.9202 46.3036 35.4417 44.7857 32.1115 46.4198L25.9216 50.0892Z" fill="white"/>
<path d="M26.0959 16.857L30.9684 14.0253C31.1157 13.905 31.2988 13.8368 31.4889 13.8314C31.6791 13.826 31.8657 13.8837 32.0197 13.9953L33.6594 14.8687L30.5036 16.827C30.5036 16.827 28.579 17.646 26.0959 16.857Z" fill="white"/>
<path d="M18.8846 16.7689L28.0243 11.4542L29.5422 12.408C29.5422 12.408 30.0089 12.8747 29.3679 13.2064L22.8557 17.1175C22.8557 17.1175 20.1683 17.3836 18.8846 16.7689Z" fill="white"/>
<path d="M27.7328 28.6359L27.3985 28.9737C27.3417 29.03 27.2654 29.0615 27.1858 29.0615C27.1063 29.0615 27.0299 29.03 26.9731 28.9737L26.1891 28.1691C26.1625 28.1406 26.1305 28.1178 26.095 28.102C26.0595 28.0862 26.0213 28.0777 25.9825 28.077H24.5604C24.5014 28.0773 24.4438 28.0953 24.395 28.1288C24.3462 28.1623 24.3083 28.2097 24.2861 28.265C24.264 28.3203 24.2586 28.381 24.2707 28.4393C24.2827 28.4977 24.3116 28.5512 24.3538 28.5929L26.0615 30.3189L26.3289 30.5892L27.0825 31.3508L27.3499 31.6211L27.9577 32.2353L28.2251 32.5056L28.9787 33.2672L29.246 33.5375L30.2488 34.551C30.2755 34.5794 30.3075 34.6023 30.3429 34.6181C30.3784 34.6339 30.4167 34.6424 30.4554 34.6431H31.8897C31.9487 34.6428 32.0063 34.6247 32.0551 34.5912C32.104 34.5577 32.1418 34.5103 32.164 34.4551C32.1861 34.3998 32.1915 34.3391 32.1795 34.2807C32.1674 34.2224 32.1385 34.1689 32.0963 34.1272L30.5952 32.61C30.5395 32.5526 30.5083 32.4754 30.5083 32.395C30.5083 32.3146 30.5395 32.2375 30.5952 32.1801L30.9295 31.8422C30.9863 31.7859 31.0626 31.7544 31.1422 31.7544C31.2217 31.7544 31.2981 31.7859 31.3549 31.8422L33.5731 34.0842C33.6065 34.1198 33.6481 34.1467 33.6941 34.1624C33.7401 34.1781 33.7892 34.1822 33.8372 34.1743C33.8851 34.1665 33.9304 34.1469 33.9691 34.1172C34.0079 34.0876 34.0388 34.0488 34.0593 34.0043C34.5552 32.8817 34.7242 31.6395 34.5466 30.4233C34.3691 29.207 33.8522 28.0671 33.0566 27.1371C33.0168 27.0909 32.964 27.058 32.9053 27.0429C32.8466 27.0277 32.7847 27.0311 32.7279 27.0524C32.6711 27.0737 32.622 27.1121 32.5874 27.1624C32.5527 27.2127 32.5341 27.2725 32.5339 27.3337V29.5388C32.5332 29.578 32.5248 29.6167 32.5091 29.6525C32.4935 29.6884 32.4709 29.7207 32.4427 29.7477L31.1361 31.099L30.8687 31.3693L30.1151 32.1309L29.8477 32.4012L29.4527 32.8004C29.3959 32.8567 29.3195 32.8882 29.24 32.8882C29.1605 32.8882 29.0841 32.8567 29.0272 32.8004L28.693 32.4626C28.6374 32.4052 28.6062 32.328 28.6062 32.2476C28.6062 32.1672 28.6374 32.09 28.693 32.0326L29.088 31.6334L29.3555 31.3631L30.109 30.6014L30.3765 30.3312L31.3792 29.3177C31.4074 29.2907 31.43 29.2584 31.4456 29.2225C31.4613 29.1867 31.4697 29.1481 31.4704 29.1088V27.6838C31.47 27.6242 31.4521 27.566 31.419 27.5167C31.3859 27.4673 31.339 27.429 31.2843 27.4066C31.2296 27.3843 31.1696 27.3788 31.1118 27.391C31.0541 27.4032 31.0012 27.4324 30.9599 27.475L29.2521 29.201L28.9847 29.4713L28.2311 30.2329L27.9516 30.5032L27.5565 30.9024C27.4997 30.9587 27.4234 30.9902 27.3438 30.9902C27.2643 30.9902 27.188 30.9587 27.1312 30.9024L26.7969 30.5646C26.7412 30.5072 26.71 30.43 26.71 30.3496C26.71 30.2692 26.7412 30.192 26.7969 30.1346L27.1919 29.7354L27.4593 29.4651L28.2129 28.7035L28.4803 28.4332L30.9112 25.9762C30.9452 25.9419 30.9706 25.8998 30.9853 25.8535C31 25.8072 31.0037 25.7581 30.996 25.7102C30.9883 25.6622 30.9694 25.6167 30.941 25.5776C30.9125 25.5384 30.8752 25.5067 30.8323 25.4849C29.7215 24.9837 28.4925 24.8128 27.2891 24.9923C26.0857 25.1718 24.9579 25.6942 24.0378 26.4983C23.992 26.5385 23.9594 26.5919 23.9444 26.6512C23.9295 26.7106 23.9327 26.7732 23.9539 26.8306C23.975 26.888 24.013 26.9375 24.0628 26.9725C24.1125 27.0076 24.1716 27.0264 24.2322 27.0266H26.414C26.4528 27.0273 26.491 27.0358 26.5265 27.0516C26.562 27.0674 26.594 27.0903 26.6207 27.1188L27.7206 28.2305C27.7723 28.2844 27.8022 28.3558 27.8044 28.4308C27.8067 28.5058 27.7811 28.5789 27.7328 28.6359Z" fill="#186AB4"/>
<path d="M28.4745 34.2991L28.2071 34.0288L27.4535 33.2672L27.1861 32.9969L26.5783 32.3827L26.311 32.1124L25.5573 31.3507L25.2778 31.0682L22.8468 28.6112C22.8134 28.5756 22.7719 28.5487 22.7259 28.533C22.6799 28.5173 22.6308 28.5132 22.5828 28.5211C22.5349 28.529 22.4896 28.5486 22.4508 28.5782C22.4121 28.6079 22.3811 28.6466 22.3606 28.6911C21.9956 29.5249 21.8072 30.4267 21.8076 31.3385C21.8074 32.8913 22.362 34.392 23.3695 35.5644C23.4093 35.6107 23.462 35.6436 23.5207 35.6587C23.5795 35.6739 23.6414 35.6705 23.6982 35.6492C23.755 35.6278 23.804 35.5894 23.8387 35.5391C23.8733 35.4889 23.892 35.4291 23.8921 35.3678V33.1627C23.8928 33.1235 23.9013 33.0849 23.9169 33.049C23.9326 33.0132 23.9551 32.9809 23.9833 32.9539L25.0833 31.8421C25.1401 31.7858 25.2165 31.7543 25.296 31.7543C25.3756 31.7543 25.452 31.7858 25.5088 31.8421L25.843 32.18C25.8987 32.2374 25.9298 32.3146 25.9298 32.395C25.9298 32.4753 25.8987 32.5525 25.843 32.6099L25.0468 33.39C25.0187 33.4169 24.9961 33.4493 24.9805 33.4852C24.9648 33.521 24.9564 33.5596 24.9557 33.5989V35.0484C24.956 35.1081 24.9739 35.1662 25.007 35.2156C25.0402 35.265 25.0871 35.3033 25.1417 35.3256C25.1964 35.348 25.2565 35.3534 25.3143 35.3413C25.372 35.3291 25.4249 35.2999 25.4662 35.2573L26.9673 33.7401C27.0241 33.6838 27.1005 33.6523 27.18 33.6523C27.2595 33.6523 27.3359 33.6838 27.3927 33.7401L27.727 34.078C27.7826 34.1354 27.8138 34.2125 27.8138 34.2929C27.8138 34.3733 27.7826 34.4505 27.727 34.5079L25.5148 36.7622C25.4795 36.7959 25.453 36.8379 25.4374 36.8844C25.4219 36.9309 25.4178 36.9805 25.4256 37.029C25.4334 37.0775 25.4528 37.1232 25.4821 37.1624C25.5114 37.2015 25.5498 37.2328 25.5938 37.2536C26.7045 37.7547 27.9336 37.9256 29.137 37.7461C30.3403 37.5666 31.4682 37.0441 32.3883 36.2401C32.4341 36.1999 32.4667 36.1466 32.4816 36.0872C32.4966 36.0278 32.4933 35.9652 32.4722 35.9078C32.451 35.8504 32.4131 35.8009 32.3633 35.7659C32.3136 35.7308 32.2545 35.712 32.1938 35.7118H29.9999C29.9611 35.7111 29.9229 35.7026 29.8874 35.6868C29.852 35.6709 29.82 35.6482 29.7933 35.6197L28.4745 34.2991Z" fill="#186AB4"/>
</svg>
