<svg width="91" height="82" viewBox="0 0 91 82" fill="none" xmlns="http://www.w3.org/2000/svg">
<path d="M45.278 21.58C44.5237 21.58 43.9124 20.9693 43.9124 20.216V5.742C43.9124 4.9885 44.5237 4.37799 45.278 4.37799C46.0322 4.37799 46.6435 4.98867 46.6435 5.742V20.2158C46.6435 20.9693 46.0322 21.58 45.278 21.58V21.58Z" fill="#D9E7EC"/>
<path d="M39.0327 21.58C38.279 21.58 37.6678 20.9702 37.6671 20.2174L37.6561 9.70464C37.6556 9.45506 37.4514 9.25126 37.201 9.25126H33.6576C32.9034 9.25126 32.292 8.64058 32.292 7.88726C32.292 7.13394 32.9034 6.52325 33.6576 6.52325H37.201C38.9549 6.52325 40.3845 7.94877 40.3875 9.70093L40.3984 20.2147C40.3993 20.9682 39.7885 21.5794 39.0342 21.5802C39.0337 21.58 39.0332 21.58 39.0327 21.58V21.58Z" fill="#D9E7EC"/>
<path d="M51.4659 21.58C51.4653 21.58 51.4648 21.58 51.4641 21.58C50.7099 21.5791 50.0992 20.9675 50.1001 20.2144L50.1128 9.70163C50.1128 7.94965 51.5424 6.52307 53.2993 6.52307H56.8409C57.5951 6.52307 58.2074 7.13375 58.2074 7.88708C58.2074 8.6404 57.5969 9.25108 56.8427 9.25108H53.2993C53.0483 9.25108 52.8442 9.45399 52.8442 9.70304L52.8315 20.2174C52.8306 20.9702 52.2192 21.58 51.4659 21.58Z" fill="#D9E7EC"/>
<path d="M45.27 5.74201C46.8619 5.74201 48.1523 4.45661 48.1523 2.871C48.1523 1.28539 46.8619 0 45.27 0C43.6782 0 42.3877 1.28539 42.3877 2.871C42.3877 4.45661 43.6782 5.74201 45.27 5.74201Z" fill="#FD9468"/>
<path d="M30.7761 10.8277C32.368 10.8277 33.6584 9.54231 33.6584 7.9567C33.6584 6.37109 32.368 5.08569 30.7761 5.08569C29.1843 5.08569 27.8938 6.37109 27.8938 7.9567C27.8938 9.54231 29.1843 10.8277 30.7761 10.8277Z" fill="#FD9468"/>
<path d="M59.7214 10.8277C61.3133 10.8277 62.6037 9.54231 62.6037 7.9567C62.6037 6.37109 61.3133 5.08569 59.7214 5.08569C58.1296 5.08569 56.8391 6.37109 56.8391 7.9567C56.8391 9.54231 58.1296 10.8277 59.7214 10.8277Z" fill="#FD9468"/>
<path d="M87.4746 74.5703H3.02301C1.3534 74.5703 0 73.2169 0 71.5473V23.2388C0 21.5692 1.3534 20.2158 3.02301 20.2158H87.4746C89.1443 20.2158 90.4977 21.5692 90.4977 23.2388V71.5473C90.4977 73.2169 89.1443 74.5703 87.4746 74.5703Z" fill="#8AC9FE"/>
<path d="M87.4729 20.216H78.1157V59.5457C78.1157 61.2143 76.7615 62.567 75.091 62.567H0V71.5492C0 73.2178 1.35428 74.5705 3.02478 74.5705H87.4729C89.1434 74.5705 90.4977 73.2178 90.4977 71.5492V23.2372C90.4977 21.5685 89.1434 20.216 87.4729 20.216Z" fill="#60B7FF"/>
<path d="M5.46277 68.5864V26.1998C5.46277 25.9069 5.70015 25.6695 5.99303 25.6695H84.5049C84.7978 25.6695 85.0351 25.9069 85.0351 26.1998V68.5864C85.0351 68.8793 84.7978 69.1167 84.5049 69.1167H5.99303C5.70032 69.1167 5.46277 68.8793 5.46277 68.5864V68.5864Z" fill="#EAF6FF"/>
<path d="M78.1159 25.6695C78.1159 46.0472 61.5768 62.5667 41.1747 62.5667H5.46277V68.5864C5.46277 68.8793 5.70015 69.1167 5.99303 69.1167H84.5049C84.7978 69.1167 85.0351 68.8793 85.0351 68.5864V26.1998C85.0351 25.9069 84.7978 25.6695 84.5049 25.6695H78.1159Z" fill="#D8ECFE"/>
<path d="M69.1016 48.2986H60.9513C60.1971 48.2986 59.5857 47.6879 59.5857 46.9346C59.5857 46.1812 60.1971 45.5706 60.9513 45.5706H69.1016C69.8558 45.5706 70.4672 46.1812 70.4672 46.9346C70.4672 47.6879 69.8558 48.2986 69.1016 48.2986Z" fill="#C4E2FF"/>
<path d="M59.7474 42.3142C58.9957 42.3142 58.385 41.7072 58.3818 40.9558C58.3787 40.2023 58.9876 39.5894 59.7418 39.5862L65.4446 39.5625C65.5653 39.562 65.6634 39.4639 65.6634 39.3438V35.7667C65.6634 35.0132 66.2748 34.4027 67.029 34.4027C67.7832 34.4027 68.3946 35.0134 68.3946 35.7667V39.3438C68.3946 40.962 67.0762 42.284 65.4557 42.2905L59.7531 42.3142C59.7513 42.3142 59.7494 42.3142 59.7474 42.3142V42.3142Z" fill="#C4E2FF"/>
<path d="M67.0289 59.4109C66.2747 59.4109 65.6633 58.8002 65.6633 58.0469V54.4697C65.6633 54.3497 65.5652 54.2516 65.4447 54.2511L59.8177 54.2274C59.0635 54.2242 58.4546 53.6109 58.4578 52.8577C58.461 52.1064 59.0718 51.4994 59.8234 51.4994H59.8292L65.456 51.5231C67.0763 51.5296 68.3947 52.8516 68.3947 54.4697V58.0469C68.3945 58.8002 67.7831 59.4109 67.0289 59.4109V59.4109Z" fill="#C4E2FF"/>
<path d="M29.5766 48.2986H21.3962C20.642 48.2986 20.0306 47.6879 20.0306 46.9346C20.0306 46.1812 20.642 45.5706 21.3962 45.5706H29.5766C30.3308 45.5706 30.9421 46.1812 30.9421 46.9346C30.9421 47.6879 30.3309 48.2986 29.5766 48.2986Z" fill="#C4E2FF"/>
<path d="M30.78 42.3142C30.7781 42.3142 30.7761 42.3142 30.7744 42.3142L25.0415 42.2905C23.4211 42.284 22.1027 40.962 22.1027 39.3438V35.7667C22.1027 35.0132 22.7141 34.4027 23.4683 34.4027C24.2225 34.4027 24.8339 35.0134 24.8339 35.7667V39.3438C24.8339 39.4639 24.932 39.562 25.0525 39.5625L30.7853 39.5862C31.5395 39.5894 32.1484 40.2025 32.1454 40.9558C32.1424 41.7072 31.5316 42.3142 30.78 42.3142Z" fill="#C4E2FF"/>
<path d="M23.4683 59.4109C22.7141 59.4109 22.1027 58.8002 22.1027 58.0469V54.4697C22.1027 52.8516 23.4211 51.5296 25.0414 51.5231L30.6982 51.4994H30.704C31.4557 51.4994 32.0664 52.1064 32.0696 52.8577C32.0728 53.6111 31.4639 54.2242 30.7097 54.2274L25.0528 54.2511C24.9321 54.2516 24.8342 54.3497 24.8342 54.4697V58.0469C24.834 58.8002 24.2225 59.4109 23.4683 59.4109V59.4109Z" fill="#C4E2FF"/>
<path d="M71.8759 49.6963C73.4081 49.6963 74.6502 48.4563 74.6502 46.9266C74.6502 45.3969 73.4081 44.1569 71.8759 44.1569C70.3437 44.1569 69.1016 45.3969 69.1016 46.9266C69.1016 48.4563 70.3437 49.6963 71.8759 49.6963Z" fill="#FD9468"/>
<path d="M45.264 62.725C53.9273 62.725 60.9503 55.6843 60.9503 46.9992C60.9503 38.3142 53.9273 31.2735 45.264 31.2735C36.6006 31.2735 29.5776 38.3142 29.5776 46.9992C29.5776 55.6843 36.6006 62.725 45.264 62.725Z" fill="#FEE45A"/>
<path d="M50.1519 32.0563C52.8893 34.8872 54.5769 38.744 54.5769 42.9981C54.5769 51.6832 47.554 58.7238 38.8908 58.7238C37.1834 58.7238 35.5415 58.4467 34.0027 57.941C36.8539 60.8896 40.8439 62.725 45.2638 62.725C53.927 62.725 60.95 55.6844 60.95 46.9992C60.9501 40.0258 56.4208 34.1162 50.1519 32.0563V32.0563Z" fill="#FED230"/>
<path d="M53.4137 50.461C53.4137 48.7048 52.4857 47.1619 51.0943 46.2931C51.7061 45.4725 52.0686 44.4544 52.0686 43.3511C52.0686 41.128 50.5821 39.2463 48.5501 38.6425V37.6126C48.5501 36.8591 47.9387 36.2486 47.1845 36.2486C46.4303 36.2486 45.8189 36.8593 45.8189 37.6126V38.4386H44.6022V37.6126C44.6022 36.8591 43.9908 36.2486 43.2366 36.2486C42.4824 36.2486 41.871 36.8593 41.871 37.6126V38.4386H41.4629H41.29H39.2017C38.4474 38.4386 37.8361 39.0493 37.8361 39.8026C37.8361 40.5561 38.4474 41.1666 39.2017 41.1666H39.9244V46.9123V52.6578H39.2017C38.4474 52.6578 37.8361 53.2685 37.8361 54.0218C37.8361 54.7752 38.4474 55.3858 39.2017 55.3858H41.29H41.4629H41.871V56.212C41.871 56.9655 42.4824 57.576 43.2366 57.576C43.9908 57.576 44.6022 56.9653 44.6022 56.212V55.3858H45.8189V56.212C45.8189 56.9655 46.4303 57.576 47.1845 57.576C47.9387 57.576 48.5501 56.9653 48.5501 56.212V55.3846C51.2368 55.3556 53.4137 53.1644 53.4137 50.461ZM49.3372 43.3645C49.3372 44.5689 48.3562 45.5486 47.1504 45.5486H42.6552V41.1669H47.1504C48.3562 41.1669 49.3372 42.1468 49.3372 43.3645ZM48.4955 52.6584H42.6554V48.2768H47.1506H48.4957C49.7015 48.2768 50.6825 49.2567 50.6825 50.4742C50.6823 51.6784 49.7013 52.6584 48.4955 52.6584V52.6584Z" fill="#FD9468"/>
<path d="M66.9613 35.7683C68.4935 35.7683 69.7356 34.5283 69.7356 32.9986C69.7356 31.4689 68.4935 30.2289 66.9613 30.2289C65.4291 30.2289 64.187 31.4689 64.187 32.9986C64.187 34.5283 65.4291 35.7683 66.9613 35.7683Z" fill="#FD9468"/>
<path d="M66.9613 63.5842C68.4935 63.5842 69.7356 62.3441 69.7356 60.8145C69.7356 59.2848 68.4935 58.0447 66.9613 58.0447C65.4291 58.0447 64.187 59.2848 64.187 60.8145C64.187 62.3441 65.4291 63.5842 66.9613 63.5842Z" fill="#FD9468"/>
<path d="M18.622 49.6963C20.1542 49.6963 21.3963 48.4563 21.3963 46.9266C21.3963 45.3969 20.1542 44.1569 18.622 44.1569C17.0898 44.1569 15.8477 45.3969 15.8477 46.9266C15.8477 48.4563 17.0898 49.6963 18.622 49.6963Z" fill="#FD9468"/>
<path d="M23.5366 35.7683C25.0689 35.7683 26.311 34.5283 26.311 32.9986C26.311 31.4689 25.0689 30.2289 23.5366 30.2289C22.0044 30.2289 20.7623 31.4689 20.7623 32.9986C20.7623 34.5283 22.0044 35.7683 23.5366 35.7683Z" fill="#FD9468"/>
<path d="M23.5366 63.5842C25.0689 63.5842 26.311 62.3441 26.311 60.8145C26.311 59.2848 25.0689 58.0447 23.5366 58.0447C22.0044 58.0447 20.7623 59.2848 20.7623 60.8145C20.7623 62.3441 22.0044 63.5842 23.5366 63.5842Z" fill="#FD9468"/>
<path d="M35.0422 81.66H9.2058C8.84823 81.66 8.55835 81.3701 8.55835 81.0126V74.5703H35.6894V81.0126C35.6894 81.3701 35.3997 81.66 35.0422 81.66V81.66Z" fill="#C5D3DD"/>
<path d="M8.55835 74.5703V77.4801H28.2271C30.5383 77.4801 32.4119 79.3514 32.4119 81.66H35.0416C35.3994 81.66 35.6894 81.3703 35.6894 81.0131V74.5704H8.55835V74.5703Z" fill="#B6C4CF"/>
<path d="M80.9279 81.66H64.0139C63.6563 81.66 63.3665 81.3701 63.3665 81.0126V74.5703H81.5752V81.0126C81.5754 81.3701 81.2855 81.66 80.9279 81.66Z" fill="#C5D3DD"/>
<path d="M63.3665 74.5703V77.662H74.477C76.6876 77.662 78.4797 79.452 78.4797 81.66H80.9274C81.2852 81.66 81.5752 81.3703 81.5752 81.0129V74.5703H63.3665Z" fill="#B6C4CF"/>
<path d="M54.525 81.66H44.1662C43.8087 81.66 43.5188 81.3701 43.5188 81.0126V74.5703H55.1725V81.0126C55.1725 81.3701 54.8826 81.66 54.525 81.66Z" fill="#C5D3DD"/>
<path d="M43.5188 74.5703V77.662H48.0743C50.2849 77.662 52.077 79.452 52.077 81.66H54.5247C54.8824 81.66 55.1725 81.3703 55.1725 81.0131V74.5704H43.5188V74.5703Z" fill="#B6C4CF"/>
</svg>
